{
    "version": 6,
    "entities": [
        {
            "entity": {
                "type": "Project",
                "description": "",
                "id": "afa2c99b-94d1-47f7-a298-bae41769bbfa",
                "name": "EquitableOSv0.0.1"
            },
            "children": [
                {
                    "entity": {
                        "type": "Scenario",
                        "id": "dccf64a6-db08-445d-aa9d-864db9e89ae8",
                        "name": "Create article, open vote, verify if lock is enabled"
                    },
                    "children": [
                        {
                            "entity": {
                                "type": "Request",
                                "method": {
                                    "requestBody": true,
                                    "link": "http://tools.ietf.org/html/rfc7231#section-4.3.3",
                                    "name": "POST"
                                },
                                "body": {
                                    "formBody": {
                                        "overrideContentType": true,
                                        "encoding": "application/x-www-form-urlencoded",
                                        "items": []
                                    },
                                    "bodyType": "Text",
                                    "textBody": "{\n  \"title\" : \"Tote bag fixie sriracha shoreditch\",\n  \"description\" : \"Lorem ipsum dolor fixie shabby chic franzen adaptogen vaporware thundercats.\"\n}"
                                },
                                "uri": {
                                    "query": {
                                        "delimiter": "&",
                                        "items": []
                                    },
                                    "host": "${\"host\"}",
                                    "path": "/articles"
                                },
                                "id": "ed04b045-aea3-4c3b-bde8-0b8b73d1facf",
                                "name": "Create new article",
                                "headers": [
                                    {
                                        "enabled": true,
                                        "name": "Content-Type",
                                        "value": "application/json"
                                    }
                                ]
                            }
                        },
                        {
                            "entity": {
                                "type": "Request",
                                "method": {
                                    "requestBody": true,
                                    "link": "http://tools.ietf.org/html/rfc7231#section-4.3.4",
                                    "name": "PUT"
                                },
                                "body": {
                                    "formBody": {
                                        "overrideContentType": true,
                                        "encoding": "application/x-www-form-urlencoded",
                                        "items": []
                                    },
                                    "bodyType": "Text",
                                    "textBody": "{\n  \"title\" : \"Listicle pinterest kitsch 3\"\n}"
                                },
                                "uri": {
                                    "query": {
                                        "delimiter": "&",
                                        "items": []
                                    },
                                    "host": "${\"host\"}",
                                    "path": "/articles/${getEntityById(\"ed04b045-aea3-4c3b-bde8-0b8b73d1facf\").\"response\".\"body\".\"_id\"}"
                                },
                                "id": "8a1f0503-0e0a-4f2e-8471-72e1297ac7df",
                                "name": "Update Article",
                                "headers": [
                                    {
                                        "enabled": true,
                                        "name": "Content-Type",
                                        "value": "application/json"
                                    }
                                ]
                            }
                        },
                        {
                            "entity": {
                                "type": "Request",
                                "method": {
                                    "requestBody": true,
                                    "link": "http://tools.ietf.org/html/rfc7231#section-4.3.3",
                                    "name": "POST"
                                },
                                "body": {
                                    "formBody": {
                                        "overrideContentType": true,
                                        "encoding": "application/x-www-form-urlencoded",
                                        "items": []
                                    },
                                    "bodyType": "Text",
                                    "textBody": "{\n  \"title\" : \"This is a new vote\",\n  \"description\" : \"be quick to cast your ballot\"\n}"
                                },
                                "uri": {
                                    "query": {
                                        "delimiter": "&",
                                        "items": []
                                    },
                                    "host": "${host}",
                                    "path": "/articles/${getEntityById(\"8a1f0503-0e0a-4f2e-8471-72e1297ac7df\").\"response\".\"body\".\"_id\"}/vote"
                                },
                                "id": "144f4ef4-4b62-46d1-a552-7c571a29962c",
                                "name": "Open Vote",
                                "headers": [
                                    {
                                        "enabled": true,
                                        "name": "Content-Type",
                                        "value": "application/json"
                                    }
                                ]
                            }
                        },
                        {
                            "entity": {
                                "type": "Request",
                                "method": {
                                    "requestBody": true,
                                    "link": "http://tools.ietf.org/html/rfc7231#section-4.3.4",
                                    "name": "PUT"
                                },
                                "body": {
                                    "formBody": {
                                        "overrideContentType": true,
                                        "encoding": "application/x-www-form-urlencoded",
                                        "items": []
                                    },
                                    "bodyType": "Text",
                                    "textBody": "{\n  \"title\" : \"Umami fixie shabby chic franzen\"\n}"
                                },
                                "uri": {
                                    "query": {
                                        "delimiter": "&",
                                        "items": []
                                    },
                                    "host": "${\"host\"}",
                                    "path": "/articles/${getEntityById(\"ed04b045-aea3-4c3b-bde8-0b8b73d1facf\").\"response\".\"body\".\"_id\"}"
                                },
                                "id": "acfeac22-8df7-43a1-a118-8bc4b35d4ad6",
                                "name": "Update Article Again",
                                "headers": [
                                    {
                                        "enabled": true,
                                        "name": "Content-Type",
                                        "value": "application/json"
                                    }
                                ]
                            }
                        }
                    ]
                },
                {
                    "entity": {
                        "type": "Request",
                        "method": {
                            "link": "http://tools.ietf.org/html/rfc7231#section-4.3.1",
                            "name": "GET"
                        },
                        "body": {
                            "formBody": {
                                "overrideContentType": true,
                                "encoding": "application/x-www-form-urlencoded",
                                "items": []
                            },
                            "bodyType": "Text",
                            "textBody": "{\n  \n}"
                        },
                        "uri": {
                            "query": {
                                "delimiter": "&",
                                "items": []
                            },
                            "host": "${\"host\"}",
                            "path": "/articles/5de90bc1c4453e89aa40656a"
                        },
                        "id": "6fe9b1bd-3e24-4723-ba76-64842b18f262",
                        "name": "Article: read",
                        "headers": []
                    }
                },
                {
                    "entity": {
                        "type": "Request",
                        "method": {
                            "requestBody": true,
                            "link": "http://tools.ietf.org/html/rfc7231#section-4.3.4",
                            "name": "PUT"
                        },
                        "body": {
                            "formBody": {
                                "overrideContentType": true,
                                "encoding": "application/x-www-form-urlencoded",
                                "items": []
                            },
                            "bodyType": "Text",
                            "textBody": "{\n  \"title\": \"Biz modelling is the cool new way to spell\"\n}"
                        },
                        "uri": {
                            "query": {
                                "delimiter": "&",
                                "items": []
                            },
                            "host": "${host}",
                            "path": "/articles/5DE9111C04D3F189B95CF5FB"
                        },
                        "description": "",
                        "id": "326cc037-240f-4b99-a66c-b03e833edad6",
                        "name": "Article: update",
                        "headers": [
                            {
                                "enabled": true,
                                "name": "Content-Type",
                                "value": "application/json"
                            }
                        ]
                    }
                },
                {
                    "entity": {
                        "type": "Request",
                        "method": {
                            "requestBody": true,
                            "link": "http://tools.ietf.org/html/rfc7231#section-4.3.3",
                            "name": "POST"
                        },
                        "body": {
                            "formBody": {
                                "overrideContentType": true,
                                "encoding": "application/x-www-form-urlencoded",
                                "items": []
                            },
                            "bodyType": "Text",
                            "textBody": "{\n  \"title\": \"Test 16\",\n  \"description\" : \"Lorem Ipsum\"\n}"
                        },
                        "uri": {
                            "query": {
                                "delimiter": "&",
                                "items": []
                            },
                            "host": "${host}",
                            "path": "/articles/"
                        },
                        "id": "fddcc7fa-8930-4a5a-b6ae-78c9fb627c56",
                        "name": "Articles: create",
                        "headers": [
                            {
                                "enabled": true,
                                "name": "Content-Type",
                                "value": "application/json"
                            }
                        ]
                    }
                },
                {
                    "entity": {
                        "type": "Request",
                        "method": {
                            "link": "http://tools.ietf.org/html/rfc7231#section-4.3.1",
                            "name": "GET"
                        },
                        "body": {
                            "formBody": {
                                "overrideContentType": true,
                                "encoding": "application/x-www-form-urlencoded",
                                "items": []
                            },
                            "bodyType": "Text",
                            "textBody": "{\n  \"title\": \"Straight from the cmd\",\n  \"description\": \"Lorem Ipsum\"\n}"
                        },
                        "uri": {
                            "query": {
                                "delimiter": "&",
                                "items": []
                            },
                            "host": "${\"host\"}",
                            "path": "/articles"
                        },
                        "id": "fc3f06a8-8b21-4c42-8acf-457c29f6a707",
                        "name": "Articles: get all",
                        "headers": [
                            {
                                "enabled": true,
                                "name": "If-None-Match",
                                "value": "W/\"48-dLFV4pSWLbTmaGW5YMTpnQ7hyms\""
                            }
                        ]
                    }
                },
                {
                    "entity": {
                        "type": "Request",
                        "method": {
                            "requestBody": true,
                            "link": "http://tools.ietf.org/html/rfc7231#section-4.3.3",
                            "name": "POST"
                        },
                        "body": {
                            "formBody": {
                                "overrideContentType": true,
                                "encoding": "application/x-www-form-urlencoded",
                                "items": []
                            },
                            "bodyType": "Text",
                            "textBody": "{\n  \"title\" : \"It's time to align our thoughts on this\",\n  \"description\" : \"So we can move on and make money\"\n  \n}"
                        },
                        "uri": {
                            "query": {
                                "delimiter": "&",
                                "items": []
                            },
                            "host": "${\"host\"}",
                            "path": "/articles/5DE9111C04D3F189B95CF5FB/vote"
                        },
                        "id": "fb49182a-d109-413c-9850-59490927e83a",
                        "name": "Articles: open vote",
                        "headers": [
                            {
                                "enabled": true,
                                "name": "Content-Type",
                                "value": "application/json"
                            }
                        ]
                    }
                },
                {
                    "entity": {
                        "type": "Request",
                        "method": {
                            "requestBody": true,
                            "link": "http://tools.ietf.org/html/rfc7231#section-4.3.3",
                            "name": "POST"
                        },
                        "body": {
                            "formBody": {
                                "overrideContentType": true,
                                "encoding": "application/x-www-form-urlencoded",
                                "items": []
                            },
                            "bodyType": "Text",
                            "textBody": "{\n  \"title\" : \"This is a new category\",\n  \"description\" : \"Lorem Ipsum\"\n}"
                        },
                        "uri": {
                            "query": {
                                "delimiter": "&",
                                "items": []
                            },
                            "host": "${\"host\"}",
                            "path": "/categories"
                        },
                        "id": "0d323345-7b07-487e-a199-be45fcd1c594",
                        "name": "Categories: create",
                        "headers": [
                            {
                                "enabled": true,
                                "name": "Content-Type",
                                "value": "application/json"
                            }
                        ]
                    }
                },
                {
                    "entity": {
                        "type": "Request",
                        "method": {
                            "link": "http://tools.ietf.org/html/rfc7231#section-4.3.1",
                            "name": "GET"
                        },
                        "body": {
                            "formBody": {
                                "overrideContentType": true,
                                "encoding": "application/x-www-form-urlencoded",
                                "items": []
                            },
                            "bodyType": "Text"
                        },
                        "uri": {
                            "query": {
                                "delimiter": "&",
                                "items": []
                            },
                            "host": "${\"host\"}",
                            "path": "/categories"
                        },
                        "id": "53136d0a-8646-4d20-bfd4-d3a020aa3bbd",
                        "name": "Categories: read",
                        "headers": []
                    }
                },
                {
                    "entity": {
                        "type": "Request",
                        "method": {
                            "link": "http://tools.ietf.org/html/rfc7231#section-4.3.1",
                            "name": "GET"
                        },
                        "body": {
                            "formBody": {
                                "overrideContentType": true,
                                "encoding": "application/x-www-form-urlencoded",
                                "items": []
                            },
                            "bodyType": "Text"
                        },
                        "uri": {
                            "query": {
                                "delimiter": "&",
                                "items": []
                            },
                            "host": "${\"host\"}",
                            "path": "/categories/19090"
                        },
                        "id": "9d0edcd4-516d-440a-b8a2-ff775db7ffd0",
                        "name": "Category: read",
                        "headers": []
                    }
                },
                {
                    "entity": {
                        "type": "Request",
                        "method": {
                            "link": "http://tools.ietf.org/html/rfc7231#section-4.3.1",
                            "name": "GET"
                        },
                        "body": {
                            "formBody": {
                                "overrideContentType": true,
                                "encoding": "application/x-www-form-urlencoded",
                                "items": []
                            },
                            "bodyType": "Text"
                        },
                        "uri": {
                            "query": {
                                "delimiter": "&",
                                "items": []
                            },
                            "host": "${\"host\"}",
                            "path": "/api"
                        },
                        "id": "ca5bbd50-c992-423f-97f1-b895615f239c",
                        "name": "Root / instance call",
                        "headers": []
                    }
                },
                {
                    "entity": {
                        "type": "Request",
                        "method": {
                            "requestBody": true,
                            "link": "http://tools.ietf.org/html/rfc7231#section-4.3.3",
                            "name": "POST"
                        },
                        "body": {
                            "formBody": {
                                "overrideContentType": true,
                                "encoding": "application/x-www-form-urlencoded",
                                "items": []
                            },
                            "bodyType": "Text",
                            "textBody": "{\n  \"password\" : \"ABC123\",\n  \"email\": \"test13@gmail.com\"\n}"
                        },
                        "uri": {
                            "query": {
                                "delimiter": "&",
                                "items": []
                            },
                            "host": "${\"host\"}",
                            "path": "/users/login"
                        },
                        "description": "",
                        "id": "5da5cde2-b3fb-40e5-a3ac-3ccff2a62dae",
                        "name": "Users: login",
                        "headers": [
                            {
                                "enabled": true,
                                "name": "Content-Type",
                                "value": "application/json"
                            },
                            {
                                "enabled": true,
                                "name": "If-None-Match",
                                "value": "W/\"48-dLFV4pSWLbTmaGW5YMTpnQ7hyms\""
                            }
                        ]
                    }
                },
                {
                    "entity": {
                        "type": "Request",
                        "method": {
                            "requestBody": true,
                            "link": "http://tools.ietf.org/html/rfc7231#section-4.3.3",
                            "name": "POST"
                        },
                        "body": {
                            "formBody": {
                                "overrideContentType": true,
                                "encoding": "application/x-www-form-urlencoded",
                                "items": []
                            },
                            "bodyType": "Text",
                            "textBody": "{\n  \"username\": \"test13\",\n  \"email\" : \"test13@gmail.com\",\n  \"password\" : \"ABC123\",\n  \"publicKey\" : \"123\"\n}"
                        },
                        "uri": {
                            "query": {
                                "delimiter": "&",
                                "items": []
                            },
                            "host": "${\"host\"}",
                            "path": "/users/register"
                        },
                        "description": "",
                        "id": "e301f366-bd18-4c45-b344-c52e9a9de9c2",
                        "name": "Users: register",
                        "headers": [
                            {
                                "enabled": true,
                                "name": "Content-Type",
                                "value": "application/json; charset=utf-8"
                            }
                        ]
                    }
                }
            ]
        }
    ],
    "environments": [
        {
            "id": "8b50bf18-e935-4438-9106-f3ece8dd8ecd",
            "name": "EqOS",
            "variables": {
                "0cb3c183-ab76-4323-ad62-6fbb41dd9068": {
                    "createdAt": "2019-11-26T11:25:39.447+01:00",
                    "name": "host",
                    "value": "localhost:3000/api",
                    "enabled": true,
                    "private": false
                }
            }
        }
    ]
}